# 3ds Max Wavefront OBJ Exporter v0.97b - (c)2007 guruware
# File Created: 18.03.2020 14:36:13

newmtl wire_000000000
	Ns 32.000000
	Ni 1.500000
	d 1.000000
	Tr 0.000000
	Tf 1.000000 1.000000 1.000000 
	illum 2
	Ka 0.000000 0.000000 0.000000
	Kd 0.000000 0.000000 0.000000
	Ks 0.350000 0.350000 0.350000
	Ke 0.000000 0.000000 0.000000
	map_Ka Object010Corona_diff.jpg
	map_Kd Object010Corona_diff.jpg
	map_Ks Object010Corona_spec.jpg
	map_bump Object010Corona_bump.jpg
	bump Object010Corona_bump.jpg
