<svg xmlns="http://www.w3.org/2000/svg" width="50px" height="50px" viewBox="0 0 100 100" preserveAspectRatio="xMidYMid">
	<g transform="translate(81,50)">
		<g transform="rotate(0)">
			<circle cx="0" cy="0" r="6" fill="#e9967a" fill-opacity="1" transform="scale(1.0124 1.0124)">
				<animateTransform attributeName="transform" type="scale" begin="-0.875s" values="1.5 1.5;1 1" keyTimes="0;1" dur="1s" repeatCount="indefinite"></animateTransform>
				<animate attributeName="fill-opacity" keyTimes="0;1" dur="1s" repeatCount="indefinite" values="1;0" begin="-0.875s"></animate>
			</circle>
		</g>
	</g><g transform="translate(71.92031021678298,71.92031021678298)">
	<g transform="rotate(45)">
		<circle cx="0" cy="0" r="6" fill="#e9967a" fill-opacity="0.875" transform="scale(1.0749 1.0749)">
			<animateTransform attributeName="transform" type="scale" begin="-0.75s" values="1.5 1.5;1 1" keyTimes="0;1" dur="1s" repeatCount="indefinite"></animateTransform>
			<animate attributeName="fill-opacity" keyTimes="0;1" dur="1s" repeatCount="indefinite" values="1;0" begin="-0.75s"></animate>
		</circle>
	</g>
</g><g transform="translate(50,81)">
	<g transform="rotate(90)">
		<circle cx="0" cy="0" r="6" fill="#e9967a" fill-opacity="0.75" transform="scale(1.1374 1.1374)">
			<animateTransform attributeName="transform" type="scale" begin="-0.625s" values="1.5 1.5;1 1" keyTimes="0;1" dur="1s" repeatCount="indefinite"></animateTransform>
			<animate attributeName="fill-opacity" keyTimes="0;1" dur="1s" repeatCount="indefinite" values="1;0" begin="-0.625s"></animate>
		</circle>
	</g>
</g><g transform="translate(28.079689783217027,71.92031021678298)">
	<g transform="rotate(135)">
		<circle cx="0" cy="0" r="6" fill="#e9967a" fill-opacity="0.625" transform="scale(1.1999 1.1999)">
			<animateTransform attributeName="transform" type="scale" begin="-0.5s" values="1.5 1.5;1 1" keyTimes="0;1" dur="1s" repeatCount="indefinite"></animateTransform>
			<animate attributeName="fill-opacity" keyTimes="0;1" dur="1s" repeatCount="indefinite" values="1;0" begin="-0.5s"></animate>
		</circle>
	</g>
</g><g transform="translate(19,50.00000000000001)">
	<g transform="rotate(180)">
		<circle cx="0" cy="0" r="6" fill="#e9967a" fill-opacity="0.5" transform="scale(1.2624 1.2624)">
			<animateTransform attributeName="transform" type="scale" begin="-0.375s" values="1.5 1.5;1 1" keyTimes="0;1" dur="1s" repeatCount="indefinite"></animateTransform>
			<animate attributeName="fill-opacity" keyTimes="0;1" dur="1s" repeatCount="indefinite" values="1;0" begin="-0.375s"></animate>
		</circle>
	</g>
</g><g transform="translate(28.07968978321702,28.079689783217027)">
	<g transform="rotate(225)">
		<circle cx="0" cy="0" r="6" fill="#e9967a" fill-opacity="0.375" transform="scale(1.3249 1.3249)">
			<animateTransform attributeName="transform" type="scale" begin="-0.25s" values="1.5 1.5;1 1" keyTimes="0;1" dur="1s" repeatCount="indefinite"></animateTransform>
			<animate attributeName="fill-opacity" keyTimes="0;1" dur="1s" repeatCount="indefinite" values="1;0" begin="-0.25s"></animate>
		</circle>
	</g>
</g><g transform="translate(49.99999999999999,19)">
	<g transform="rotate(270)">
		<circle cx="0" cy="0" r="6" fill="#e9967a" fill-opacity="0.25" transform="scale(1.3874 1.3874)">
			<animateTransform attributeName="transform" type="scale" begin="-0.125s" values="1.5 1.5;1 1" keyTimes="0;1" dur="1s" repeatCount="indefinite"></animateTransform>
			<animate attributeName="fill-opacity" keyTimes="0;1" dur="1s" repeatCount="indefinite" values="1;0" begin="-0.125s"></animate>
		</circle>
	</g>
</g><g transform="translate(71.92031021678297,28.07968978321702)">
	<g transform="rotate(315)">
		<circle cx="0" cy="0" r="6" fill="#e9967a" fill-opacity="0.125" transform="scale(1.4499 1.4499)">
			<animateTransform attributeName="transform" type="scale" begin="0s" values="1.5 1.5;1 1" keyTimes="0;1" dur="1s" repeatCount="indefinite"></animateTransform>
			<animate attributeName="fill-opacity" keyTimes="0;1" dur="1s" repeatCount="indefinite" values="1;0" begin="0s"></animate>
		</circle>
	</g>
</g>
</svg>