<svg xmlns="http://www.w3.org/2000/svg" viewBox="0 0 12 18">
	<path d="M10.5,1.5H1.5C0.7,1.5,0,2.2,0,3c0,0,0,0,0,0V14c0,0.6,0.4,1.2,1,1.4v1.1H4v-1H8v1H11v-1.1c0.6-0.2,1-0.8,1-1.4V3C12,2.2,11.3,1.5,10.5,1.5z M1.4,4.5h1.8V2.6h1.8v1.8h1.8V2.6h1.8v1.8h1.8v1.8H8.8V4.5H6.9v1.8H5.1V4.5H3.3v1.8H1.4L1.4,4.5z M2.9,13.7L2.9,13.7c-0.6,0-1.1-0.5-1.1-1.1c0,0,0,0,0,0v-0.2c0-0.6,0.5-1.1,1.1-1.1c0,0,0,0,0,0l0,0c0.6,0,1.1,0.5,1.1,1.1l0,0v0.2C4,13.3,3.5,13.7,2.9,13.7L2.9,13.7L2.9,13.7z M9.1,13.7L9.1,13.7c-0.6,0-1.1-0.5-1.1-1.1v-0.2c0-0.6,0.5-1.1,1.1-1.1l0,0c0.6,0,1.1,0.5,1.1,1.1c0,0,0,0,0,0l0,0v0.2C10.2,13.3,9.7,13.7,9.1,13.7L9.1,13.7L9.1,13.7z M10.6,10.2H1.4V7.8h9.2L10.6,10.2z"/>
</svg>
